(kicad_sch (version 20210621) (generator eeschema)

  (uuid 2c60ebfa-2b1a-4089-a072-60ef81dfb373)

  (paper "A4")

  (title_block
    (title "Compute Module 4 IO Board - RTC - FAN")
    (rev "1")
    (company "(c) Raspberry Pi Trading 2020")
    (comment 1 "www.raspberrypi.org")
  )

  (lib_symbols
    (symbol "CM4IO:74LVC1G07_copy" (in_bom yes) (on_board yes)
      (property "Reference" "U" (id 0) (at -2.54 3.81 0)
        (effects (font (size 1.27 1.27)))
      )
      (property "Value" "74LVC1G07_copy" (id 1) (at 0 -3.81 0)
        (effects (font (size 1.27 1.27)))
      )
      (property "Footprint" "Package_TO_SOT_SMD:SOT-353_SC-70-5" (id 2) (at 0 0 0)
        (effects (font (size 1.27 1.27)) hide)
      )
      (property "Datasheet" "http://www.ti.com/lit/sg/scyt129e/scyt129e.pdf" (id 3) (at 0 0 0)
        (effects (font (size 1.27 1.27)) hide)
      )
      (property "ki_keywords" "Single Gate Buff LVC CMOS Open Drain" (id 4) (at 0 0 0)
        (effects (font (size 1.27 1.27)) hide)
      )
      (property "ki_description" "Single Buffer Gate w/ Open Drain, Low-Voltage CMOS" (id 5) (at 0 0 0)
        (effects (font (size 1.27 1.27)) hide)
      )
      (property "ki_fp_filters" "SOT* SG-*" (id 6) (at 0 0 0)
        (effects (font (size 1.27 1.27)) hide)
      )
      (symbol "74LVC1G07_copy_0_1"
        (polyline
          (pts
            (xy -2.54 -0.635)
            (xy -1.27 -0.635)
          )
          (stroke (width 0)) (fill (type none))
        )
        (polyline
          (pts
            (xy -3.81 2.54)
            (xy -3.81 -2.54)
            (xy 2.54 0)
            (xy -3.81 2.54)
          )
          (stroke (width 0.254)) (fill (type none))
        )
        (polyline
          (pts
            (xy -1.905 0.635)
            (xy -2.54 0)
            (xy -1.905 -0.635)
            (xy -1.27 0)
            (xy -1.905 0.635)
          )
          (stroke (width 0)) (fill (type none))
        )
      )
      (symbol "74LVC1G07_copy_1_1"
        (pin input line (at -7.62 0 0) (length 3.81)
          (name "~" (effects (font (size 1.016 1.016))))
          (number "2" (effects (font (size 1.016 1.016))))
        )
        (pin power_in line (at 0 -2.54 270) (length 0)
          (name "GND" (effects (font (size 1.016 1.016))))
          (number "3" (effects (font (size 1.016 1.016))))
        )
        (pin open_collector line (at 6.35 0 180) (length 3.81)
          (name "~" (effects (font (size 1.016 1.016))))
          (number "4" (effects (font (size 1.016 1.016))))
        )
        (pin power_in line (at 0 2.54 90) (length 0)
          (name "VCC" (effects (font (size 1.016 1.016))))
          (number "5" (effects (font (size 1.016 1.016))))
        )
      )
    )
    (symbol "CM4IO:EMC2301" (in_bom yes) (on_board yes)
      (property "Reference" "U" (id 0) (at -7.62 13.97 0)
        (effects (font (size 1.27 1.27)))
      )
      (property "Value" "EMC2301" (id 1) (at -1.27 -1.27 0)
        (effects (font (size 1.27 1.27)))
      )
      (property "Footprint" "" (id 2) (at 0 0 0)
        (effects (font (size 1.27 1.27)) hide)
      )
      (property "Datasheet" "" (id 3) (at 0 0 0)
        (effects (font (size 1.27 1.27)) hide)
      )
      (symbol "EMC2301_0_0"
        (pin open_collector line (at -11.43 10.16 0) (length 2.54)
          (name "SDA" (effects (font (size 1.27 1.27))))
          (number "1" (effects (font (size 1.27 1.27))))
        )
        (pin open_collector line (at -11.43 7.62 0) (length 2.54)
          (name "SCL" (effects (font (size 1.27 1.27))))
          (number "2" (effects (font (size 1.27 1.27))))
        )
        (pin power_in line (at -11.43 5.08 0) (length 2.54)
          (name "VDD" (effects (font (size 1.27 1.27))))
          (number "3" (effects (font (size 1.27 1.27))))
        )
        (pin power_in line (at -11.43 2.54 0) (length 2.54)
          (name "GND" (effects (font (size 1.27 1.27))))
          (number "4" (effects (font (size 1.27 1.27))))
        )
        (pin output line (at 7.62 2.54 180) (length 2.54)
          (name "PWM" (effects (font (size 1.27 1.27))))
          (number "5" (effects (font (size 1.27 1.27))))
        )
        (pin input line (at 7.62 5.08 180) (length 2.54)
          (name "TACH" (effects (font (size 1.27 1.27))))
          (number "6" (effects (font (size 1.27 1.27))))
        )
        (pin input line (at 7.62 7.62 180) (length 2.54)
          (name "CLK" (effects (font (size 1.27 1.27))))
          (number "7" (effects (font (size 1.27 1.27))))
        )
        (pin open_collector line (at 7.62 10.16 180) (length 2.54)
          (name "nALERT" (effects (font (size 1.27 1.27))))
          (number "8" (effects (font (size 1.27 1.27))))
        )
      )
      (symbol "EMC2301_0_1"
        (rectangle (start -8.89 12.7) (end 5.08 0)
          (stroke (width 0)) (fill (type none))
        )
      )
    )
    (symbol "Connector_Generic:Conn_01x04" (pin_names hide) (in_bom yes) (on_board yes)
      (property "Reference" "J" (id 0) (at 0 5.08 0)
        (effects (font (size 1.27 1.27)))
      )
      (property "Value" "Conn_01x04" (id 1) (at 0 -7.62 0)
        (effects (font (size 1.27 1.27)))
      )
      (property "Footprint" "" (id 2) (at 0 0 0)
        (effects (font (size 1.27 1.27)) hide)
      )
      (property "Datasheet" "~" (id 3) (at 0 0 0)
        (effects (font (size 1.27 1.27)) hide)
      )
      (property "ki_keywords" "connector" (id 4) (at 0 0 0)
        (effects (font (size 1.27 1.27)) hide)
      )
      (property "ki_description" "Generic connector, single row, 01x04, script generated (kicad-library-utils/schlib/autogen/connector/)" (id 5) (at 0 0 0)
        (effects (font (size 1.27 1.27)) hide)
      )
      (property "ki_fp_filters" "Connector*:*_1x??_*" (id 6) (at 0 0 0)
        (effects (font (size 1.27 1.27)) hide)
      )
      (symbol "Conn_01x04_1_1"
        (rectangle (start -1.27 -4.953) (end 0 -5.207)
          (stroke (width 0)) (fill (type none))
        )
        (rectangle (start -1.27 -2.413) (end 0 -2.667)
          (stroke (width 0)) (fill (type none))
        )
        (rectangle (start -1.27 0.127) (end 0 -0.127)
          (stroke (width 0)) (fill (type none))
        )
        (rectangle (start -1.27 2.667) (end 0 2.413)
          (stroke (width 0)) (fill (type none))
        )
        (rectangle (start -1.27 3.81) (end 1.27 -6.35)
          (stroke (width 0.254)) (fill (type background))
        )
        (pin passive line (at -5.08 2.54 0) (length 3.81)
          (name "Pin_1" (effects (font (size 1.27 1.27))))
          (number "1" (effects (font (size 1.27 1.27))))
        )
        (pin passive line (at -5.08 0 0) (length 3.81)
          (name "Pin_2" (effects (font (size 1.27 1.27))))
          (number "2" (effects (font (size 1.27 1.27))))
        )
        (pin passive line (at -5.08 -2.54 0) (length 3.81)
          (name "Pin_3" (effects (font (size 1.27 1.27))))
          (number "3" (effects (font (size 1.27 1.27))))
        )
        (pin passive line (at -5.08 -5.08 0) (length 3.81)
          (name "Pin_4" (effects (font (size 1.27 1.27))))
          (number "4" (effects (font (size 1.27 1.27))))
        )
      )
    )
    (symbol "Device:Battery_Cell" (pin_numbers hide) (pin_names (offset 0) hide) (in_bom yes) (on_board yes)
      (property "Reference" "BT" (id 0) (at 2.54 2.54 0)
        (effects (font (size 1.27 1.27)) (justify left))
      )
      (property "Value" "Battery_Cell" (id 1) (at 2.54 0 0)
        (effects (font (size 1.27 1.27)) (justify left))
      )
      (property "Footprint" "" (id 2) (at 0 1.524 90)
        (effects (font (size 1.27 1.27)) hide)
      )
      (property "Datasheet" "~" (id 3) (at 0 1.524 90)
        (effects (font (size 1.27 1.27)) hide)
      )
      (property "ki_keywords" "battery cell" (id 4) (at 0 0 0)
        (effects (font (size 1.27 1.27)) hide)
      )
      (property "ki_description" "Single-cell battery" (id 5) (at 0 0 0)
        (effects (font (size 1.27 1.27)) hide)
      )
      (symbol "Battery_Cell_0_1"
        (rectangle (start -2.286 1.778) (end 2.286 1.524)
          (stroke (width 0)) (fill (type outline))
        )
        (rectangle (start -1.5748 1.1938) (end 1.4732 0.6858)
          (stroke (width 0)) (fill (type outline))
        )
        (polyline
          (pts
            (xy 0 0.762)
            (xy 0 0)
          )
          (stroke (width 0)) (fill (type none))
        )
        (polyline
          (pts
            (xy 0 1.778)
            (xy 0 2.54)
          )
          (stroke (width 0)) (fill (type none))
        )
        (polyline
          (pts
            (xy 0.508 3.429)
            (xy 1.524 3.429)
          )
          (stroke (width 0.254)) (fill (type none))
        )
        (polyline
          (pts
            (xy 1.016 3.937)
            (xy 1.016 2.921)
          )
          (stroke (width 0.254)) (fill (type none))
        )
      )
      (symbol "Battery_Cell_1_1"
        (pin passive line (at 0 5.08 270) (length 2.54)
          (name "+" (effects (font (size 1.27 1.27))))
          (number "1" (effects (font (size 1.27 1.27))))
        )
        (pin passive line (at 0 -2.54 90) (length 2.54)
          (name "-" (effects (font (size 1.27 1.27))))
          (number "2" (effects (font (size 1.27 1.27))))
        )
      )
    )
    (symbol "Device:C" (pin_numbers hide) (pin_names (offset 0.254)) (in_bom yes) (on_board yes)
      (property "Reference" "C" (id 0) (at 0.635 2.54 0)
        (effects (font (size 1.27 1.27)) (justify left))
      )
      (property "Value" "C" (id 1) (at 0.635 -2.54 0)
        (effects (font (size 1.27 1.27)) (justify left))
      )
      (property "Footprint" "" (id 2) (at 0.9652 -3.81 0)
        (effects (font (size 1.27 1.27)) hide)
      )
      (property "Datasheet" "~" (id 3) (at 0 0 0)
        (effects (font (size 1.27 1.27)) hide)
      )
      (property "ki_keywords" "cap capacitor" (id 4) (at 0 0 0)
        (effects (font (size 1.27 1.27)) hide)
      )
      (property "ki_description" "Unpolarized capacitor" (id 5) (at 0 0 0)
        (effects (font (size 1.27 1.27)) hide)
      )
      (property "ki_fp_filters" "C_*" (id 6) (at 0 0 0)
        (effects (font (size 1.27 1.27)) hide)
      )
      (symbol "C_0_1"
        (polyline
          (pts
            (xy -2.032 -0.762)
            (xy 2.032 -0.762)
          )
          (stroke (width 0.508)) (fill (type none))
        )
        (polyline
          (pts
            (xy -2.032 0.762)
            (xy 2.032 0.762)
          )
          (stroke (width 0.508)) (fill (type none))
        )
      )
      (symbol "C_1_1"
        (pin passive line (at 0 3.81 270) (length 2.794)
          (name "~" (effects (font (size 1.27 1.27))))
          (number "1" (effects (font (size 1.27 1.27))))
        )
        (pin passive line (at 0 -3.81 90) (length 2.794)
          (name "~" (effects (font (size 1.27 1.27))))
          (number "2" (effects (font (size 1.27 1.27))))
        )
      )
    )
    (symbol "Device:Crystal_Small" (pin_numbers hide) (pin_names hide) (in_bom yes) (on_board yes)
      (property "Reference" "Y" (id 0) (at 0 2.54 0)
        (effects (font (size 1.27 1.27)))
      )
      (property "Value" "Crystal_Small" (id 1) (at 0 -2.54 0)
        (effects (font (size 1.27 1.27)))
      )
      (property "Footprint" "" (id 2) (at 0 0 0)
        (effects (font (size 1.27 1.27)) hide)
      )
      (property "Datasheet" "~" (id 3) (at 0 0 0)
        (effects (font (size 1.27 1.27)) hide)
      )
      (property "ki_keywords" "quartz ceramic resonator oscillator" (id 4) (at 0 0 0)
        (effects (font (size 1.27 1.27)) hide)
      )
      (property "ki_description" "Two pin crystal, small symbol" (id 5) (at 0 0 0)
        (effects (font (size 1.27 1.27)) hide)
      )
      (property "ki_fp_filters" "Crystal*" (id 6) (at 0 0 0)
        (effects (font (size 1.27 1.27)) hide)
      )
      (symbol "Crystal_Small_0_1"
        (rectangle (start -0.762 -1.524) (end 0.762 1.524)
          (stroke (width 0)) (fill (type none))
        )
        (polyline
          (pts
            (xy -1.27 -0.762)
            (xy -1.27 0.762)
          )
          (stroke (width 0.381)) (fill (type none))
        )
        (polyline
          (pts
            (xy 1.27 -0.762)
            (xy 1.27 0.762)
          )
          (stroke (width 0.381)) (fill (type none))
        )
      )
      (symbol "Crystal_Small_1_1"
        (pin passive line (at -2.54 0 0) (length 1.27)
          (name "1" (effects (font (size 1.27 1.27))))
          (number "1" (effects (font (size 1.27 1.27))))
        )
        (pin passive line (at 2.54 0 180) (length 1.27)
          (name "2" (effects (font (size 1.27 1.27))))
          (number "2" (effects (font (size 1.27 1.27))))
        )
      )
    )
    (symbol "Device:R" (pin_numbers hide) (pin_names (offset 0)) (in_bom yes) (on_board yes)
      (property "Reference" "R" (id 0) (at 2.032 0 90)
        (effects (font (size 1.27 1.27)))
      )
      (property "Value" "R" (id 1) (at 0 0 90)
        (effects (font (size 1.27 1.27)))
      )
      (property "Footprint" "" (id 2) (at -1.778 0 90)
        (effects (font (size 1.27 1.27)) hide)
      )
      (property "Datasheet" "~" (id 3) (at 0 0 0)
        (effects (font (size 1.27 1.27)) hide)
      )
      (property "ki_keywords" "R res resistor" (id 4) (at 0 0 0)
        (effects (font (size 1.27 1.27)) hide)
      )
      (property "ki_description" "Resistor" (id 5) (at 0 0 0)
        (effects (font (size 1.27 1.27)) hide)
      )
      (property "ki_fp_filters" "R_*" (id 6) (at 0 0 0)
        (effects (font (size 1.27 1.27)) hide)
      )
      (symbol "R_0_1"
        (rectangle (start -1.016 -2.54) (end 1.016 2.54)
          (stroke (width 0.254)) (fill (type none))
        )
      )
      (symbol "R_1_1"
        (pin passive line (at 0 3.81 270) (length 1.27)
          (name "~" (effects (font (size 1.27 1.27))))
          (number "1" (effects (font (size 1.27 1.27))))
        )
        (pin passive line (at 0 -3.81 90) (length 1.27)
          (name "~" (effects (font (size 1.27 1.27))))
          (number "2" (effects (font (size 1.27 1.27))))
        )
      )
    )
    (symbol "Diode:BAT54C" (in_bom yes) (on_board yes)
      (property "Reference" "D" (id 0) (at 0.635 -3.81 0)
        (effects (font (size 1.27 1.27)) (justify left))
      )
      (property "Value" "BAT54C" (id 1) (at -6.35 3.175 0)
        (effects (font (size 1.27 1.27)) (justify left))
      )
      (property "Footprint" "Package_TO_SOT_SMD:SOT-23" (id 2) (at 1.905 3.175 0)
        (effects (font (size 1.27 1.27)) (justify left) hide)
      )
      (property "Datasheet" "http://www.diodes.com/_files/datasheets/ds11005.pdf" (id 3) (at -2.032 0 0)
        (effects (font (size 1.27 1.27)) hide)
      )
      (property "ki_keywords" "schottky diode common cathode" (id 4) (at 0 0 0)
        (effects (font (size 1.27 1.27)) hide)
      )
      (property "ki_description" "dual schottky barrier diode, common cathode" (id 5) (at 0 0 0)
        (effects (font (size 1.27 1.27)) hide)
      )
      (property "ki_fp_filters" "SOT?23*" (id 6) (at 0 0 0)
        (effects (font (size 1.27 1.27)) hide)
      )
      (symbol "BAT54C_0_1"
        (circle (center 0 0) (radius 0.254) (stroke (width 0)) (fill (type outline)))
        (polyline
          (pts
            (xy -1.905 0)
            (xy 1.905 0)
          )
          (stroke (width 0)) (fill (type none))
        )
        (polyline
          (pts
            (xy -1.905 1.27)
            (xy -1.905 1.016)
          )
          (stroke (width 0)) (fill (type none))
        )
        (polyline
          (pts
            (xy -1.27 -1.27)
            (xy -0.635 -1.27)
          )
          (stroke (width 0)) (fill (type none))
        )
        (polyline
          (pts
            (xy -1.27 0)
            (xy -3.81 0)
          )
          (stroke (width 0)) (fill (type none))
        )
        (polyline
          (pts
            (xy -1.27 1.27)
            (xy -1.905 1.27)
          )
          (stroke (width 0)) (fill (type none))
        )
        (polyline
          (pts
            (xy -1.27 1.27)
            (xy -1.27 -1.27)
          )
          (stroke (width 0)) (fill (type none))
        )
        (polyline
          (pts
            (xy -0.635 -1.27)
            (xy -0.635 -1.016)
          )
          (stroke (width 0)) (fill (type none))
        )
        (polyline
          (pts
            (xy 0.635 -1.27)
            (xy 0.635 -1.016)
          )
          (stroke (width 0)) (fill (type none))
        )
        (polyline
          (pts
            (xy 1.27 -1.27)
            (xy 0.635 -1.27)
          )
          (stroke (width 0)) (fill (type none))
        )
        (polyline
          (pts
            (xy 1.27 1.27)
            (xy 1.27 -1.27)
          )
          (stroke (width 0)) (fill (type none))
        )
        (polyline
          (pts
            (xy 1.27 1.27)
            (xy 1.905 1.27)
          )
          (stroke (width 0)) (fill (type none))
        )
        (polyline
          (pts
            (xy 1.905 1.27)
            (xy 1.905 1.016)
          )
          (stroke (width 0)) (fill (type none))
        )
        (polyline
          (pts
            (xy 3.81 0)
            (xy 1.27 0)
          )
          (stroke (width 0)) (fill (type none))
        )
        (polyline
          (pts
            (xy -3.175 -1.27)
            (xy -3.175 1.27)
            (xy -1.27 0)
            (xy -3.175 -1.27)
          )
          (stroke (width 0)) (fill (type none))
        )
        (polyline
          (pts
            (xy 3.175 -1.27)
            (xy 3.175 1.27)
            (xy 1.27 0)
            (xy 3.175 -1.27)
          )
          (stroke (width 0)) (fill (type none))
        )
      )
      (symbol "BAT54C_1_1"
        (pin passive line (at -7.62 0 0) (length 3.81)
          (name "~" (effects (font (size 1.27 1.27))))
          (number "1" (effects (font (size 1.27 1.27))))
        )
        (pin passive line (at 7.62 0 180) (length 3.81)
          (name "~" (effects (font (size 1.27 1.27))))
          (number "2" (effects (font (size 1.27 1.27))))
        )
        (pin passive line (at 0 -5.08 90) (length 5.08)
          (name "~" (effects (font (size 1.27 1.27))))
          (number "3" (effects (font (size 1.27 1.27))))
        )
      )
    )
    (symbol "Timer_RTC:PCF8563T" (in_bom yes) (on_board yes)
      (property "Reference" "U" (id 0) (at -7.62 8.89 0)
        (effects (font (size 1.27 1.27)) (justify left))
      )
      (property "Value" "PCF8563T" (id 1) (at 2.54 8.89 0)
        (effects (font (size 1.27 1.27)) (justify left))
      )
      (property "Footprint" "Package_SO:SOIC-8_3.9x4.9mm_P1.27mm" (id 2) (at 0 0 0)
        (effects (font (size 1.27 1.27)) hide)
      )
      (property "Datasheet" "https://assets.nexperia.com/documents/data-sheet/PCF8563.pdf" (id 3) (at 0 0 0)
        (effects (font (size 1.27 1.27)) hide)
      )
      (property "ki_keywords" "I2C RTC Clock Calendar" (id 4) (at 0 0 0)
        (effects (font (size 1.27 1.27)) hide)
      )
      (property "ki_description" "Realtime Clock/Calendar I2C Interface, SOIC-8" (id 5) (at 0 0 0)
        (effects (font (size 1.27 1.27)) hide)
      )
      (property "ki_fp_filters" "SOIC*3.9x4.9mm*P1.27mm*" (id 6) (at 0 0 0)
        (effects (font (size 1.27 1.27)) hide)
      )
      (symbol "PCF8563T_0_1"
        (rectangle (start -7.62 7.62) (end 7.62 -7.62)
          (stroke (width 0.254)) (fill (type background))
        )
      )
      (symbol "PCF8563T_1_1"
        (pin input line (at -10.16 5.08 0) (length 2.54)
          (name "OSCI" (effects (font (size 1.27 1.27))))
          (number "1" (effects (font (size 1.27 1.27))))
        )
        (pin output line (at -10.16 -5.08 0) (length 2.54)
          (name "OSCO" (effects (font (size 1.27 1.27))))
          (number "2" (effects (font (size 1.27 1.27))))
        )
        (pin output line (at 10.16 -5.08 180) (length 2.54)
          (name "~{INT}" (effects (font (size 1.27 1.27))))
          (number "3" (effects (font (size 1.27 1.27))))
        )
        (pin power_in line (at 0 -10.16 90) (length 2.54)
          (name "VSS" (effects (font (size 1.27 1.27))))
          (number "4" (effects (font (size 1.27 1.27))))
        )
        (pin bidirectional line (at 10.16 2.54 180) (length 2.54)
          (name "SDA" (effects (font (size 1.27 1.27))))
          (number "5" (effects (font (size 1.27 1.27))))
        )
        (pin input line (at 10.16 5.08 180) (length 2.54)
          (name "SCL" (effects (font (size 1.27 1.27))))
          (number "6" (effects (font (size 1.27 1.27))))
        )
        (pin output clock (at 10.16 -2.54 180) (length 2.54)
          (name "CLKO" (effects (font (size 1.27 1.27))))
          (number "7" (effects (font (size 1.27 1.27))))
        )
        (pin power_in line (at 0 10.16 270) (length 2.54)
          (name "VDD" (effects (font (size 1.27 1.27))))
          (number "8" (effects (font (size 1.27 1.27))))
        )
      )
    )
    (symbol "power:GND" (power) (pin_names (offset 0)) (in_bom yes) (on_board yes)
      (property "Reference" "#PWR" (id 0) (at 0 -6.35 0)
        (effects (font (size 1.27 1.27)) hide)
      )
      (property "Value" "GND" (id 1) (at 0 -3.81 0)
        (effects (font (size 1.27 1.27)))
      )
      (property "Footprint" "" (id 2) (at 0 0 0)
        (effects (font (size 1.27 1.27)) hide)
      )
      (property "Datasheet" "" (id 3) (at 0 0 0)
        (effects (font (size 1.27 1.27)) hide)
      )
      (property "ki_keywords" "power-flag" (id 4) (at 0 0 0)
        (effects (font (size 1.27 1.27)) hide)
      )
      (property "ki_description" "Power symbol creates a global label with name \"GND\" , ground" (id 5) (at 0 0 0)
        (effects (font (size 1.27 1.27)) hide)
      )
      (symbol "GND_0_1"
        (polyline
          (pts
            (xy 0 0)
            (xy 0 -1.27)
            (xy 1.27 -1.27)
            (xy 0 -2.54)
            (xy -1.27 -1.27)
            (xy 0 -1.27)
          )
          (stroke (width 0)) (fill (type none))
        )
      )
      (symbol "GND_1_1"
        (pin power_in line (at 0 0 270) (length 0) hide
          (name "GND" (effects (font (size 1.27 1.27))))
          (number "1" (effects (font (size 1.27 1.27))))
        )
      )
    )
  )

  (junction (at 57.658 45.72) (diameter 1.016) (color 0 0 0 0))
  (junction (at 106.68 140.97) (diameter 1.016) (color 0 0 0 0))
  (junction (at 144.78 140.97) (diameter 1.016) (color 0 0 0 0))
  (junction (at 170.18 49.53) (diameter 1.016) (color 0 0 0 0))
  (junction (at 195.58 49.53) (diameter 1.016) (color 0 0 0 0))
  (junction (at 195.58 62.23) (diameter 1.016) (color 0 0 0 0))
  (junction (at 213.36 49.53) (diameter 1.016) (color 0 0 0 0))
  (junction (at 213.36 62.23) (diameter 1.016) (color 0 0 0 0))

  (no_connect (at 138.43 135.89) (uuid efddaf60-1cf3-4894-bbec-e2d86c5d718e))
  (no_connect (at 138.43 138.43) (uuid 6ce0955c-071a-4596-b7c7-bc0c33fef01f))

  (wire (pts (xy 38.1 44.45) (xy 46.228 44.45))
    (stroke (width 0) (type solid) (color 0 0 0 0))
    (uuid 1eb57129-bcf0-41bc-b535-d6e73fba8311)
  )
  (wire (pts (xy 51.308 52.07) (xy 53.34 52.07))
    (stroke (width 0) (type solid) (color 0 0 0 0))
    (uuid b3788b58-17fc-4076-a6b9-a85fd01cca4c)
  )
  (wire (pts (xy 53.34 45.72) (xy 57.658 45.72))
    (stroke (width 0) (type solid) (color 0 0 0 0))
    (uuid 0b5a6cb5-9a17-45ea-ae66-51540d81934b)
  )
  (wire (pts (xy 53.34 52.07) (xy 53.34 45.72))
    (stroke (width 0) (type solid) (color 0 0 0 0))
    (uuid 033a49a3-a5dd-4740-a56a-ac3e92991914)
  )
  (wire (pts (xy 57.658 45.72) (xy 57.658 47.0154))
    (stroke (width 0) (type solid) (color 0 0 0 0))
    (uuid 4007169a-9efc-4c7a-88cc-69a4a3d633d9)
  )
  (wire (pts (xy 57.658 45.72) (xy 91.44 45.72))
    (stroke (width 0) (type solid) (color 0 0 0 0))
    (uuid 271da184-d0b5-4365-a1c0-b4cda938eac3)
  )
  (wire (pts (xy 67.818 50.8) (xy 67.818 52.832))
    (stroke (width 0) (type solid) (color 0 0 0 0))
    (uuid db8cb800-f17a-46d7-a1e6-831aab51be1f)
  )
  (wire (pts (xy 67.818 50.8) (xy 81.28 50.8))
    (stroke (width 0) (type solid) (color 0 0 0 0))
    (uuid 04780ada-4529-4050-872e-4fa616c0551d)
  )
  (wire (pts (xy 67.818 60.96) (xy 67.818 57.912))
    (stroke (width 0) (type solid) (color 0 0 0 0))
    (uuid dd86d54e-0897-4a4d-a3a1-bfc3bcecd482)
  )
  (wire (pts (xy 81.28 60.96) (xy 67.818 60.96))
    (stroke (width 0) (type solid) (color 0 0 0 0))
    (uuid ba1c5766-fa9f-4f3c-b04d-ac75c3104e01)
  )
  (wire (pts (xy 91.44 66.04) (xy 91.44 73.66))
    (stroke (width 0) (type solid) (color 0 0 0 0))
    (uuid c1f92000-4e07-486c-adfc-d4d1c05652dc)
  )
  (wire (pts (xy 101.6 60.96) (xy 118.11 60.96))
    (stroke (width 0) (type solid) (color 0 0 0 0))
    (uuid 182d489f-a42f-4d70-a756-9ea8e874c215)
  )
  (wire (pts (xy 102.87 125.73) (xy 144.78 125.73))
    (stroke (width 0) (type solid) (color 0 0 0 0))
    (uuid e186068e-385d-4b49-a4cf-446853d4846a)
  )
  (wire (pts (xy 106.68 140.97) (xy 102.87 140.97))
    (stroke (width 0) (type solid) (color 0 0 0 0))
    (uuid 35757f26-5824-4272-b137-baa8ca9141f8)
  )
  (wire (pts (xy 109.22 50.8) (xy 101.6 50.8))
    (stroke (width 0) (type solid) (color 0 0 0 0))
    (uuid cc85d217-777d-4ba6-9dfc-bca042e3f513)
  )
  (wire (pts (xy 109.22 53.34) (xy 101.6 53.34))
    (stroke (width 0) (type solid) (color 0 0 0 0))
    (uuid 3779b81a-bc60-499e-892d-14a89c18a9e6)
  )
  (wire (pts (xy 116.84 143.51) (xy 116.84 146.05))
    (stroke (width 0) (type solid) (color 0 0 0 0))
    (uuid 710ff919-1582-4004-8797-b3f50f7a5d79)
  )
  (wire (pts (xy 119.38 135.89) (xy 102.87 135.89))
    (stroke (width 0) (type solid) (color 0 0 0 0))
    (uuid 68a2ad1b-9b7a-40ca-9903-5a45f0745edf)
  )
  (wire (pts (xy 119.38 138.43) (xy 102.87 138.43))
    (stroke (width 0) (type solid) (color 0 0 0 0))
    (uuid f4d42d94-1d96-45ba-9b6a-42213f9dbe46)
  )
  (wire (pts (xy 119.38 140.97) (xy 106.68 140.97))
    (stroke (width 0) (type solid) (color 0 0 0 0))
    (uuid 51f48f1c-854b-4b06-ad59-ae6516eabfc6)
  )
  (wire (pts (xy 119.38 143.51) (xy 116.84 143.51))
    (stroke (width 0) (type solid) (color 0 0 0 0))
    (uuid f67a9841-fc92-44c4-9a55-9a1fbc43ab92)
  )
  (wire (pts (xy 138.43 140.97) (xy 144.78 140.97))
    (stroke (width 0) (type solid) (color 0 0 0 0))
    (uuid 874f8ae7-acc2-4906-aa79-ae16fd4d3b82)
  )
  (wire (pts (xy 138.43 143.51) (xy 179.07 143.51))
    (stroke (width 0) (type solid) (color 0 0 0 0))
    (uuid 741de42e-044c-462c-af5b-314f49b2e31e)
  )
  (wire (pts (xy 144.78 125.73) (xy 144.78 130.81))
    (stroke (width 0) (type solid) (color 0 0 0 0))
    (uuid a44c95d9-dd07-48e3-89ad-a3f9e47dd6d3)
  )
  (wire (pts (xy 144.78 140.97) (xy 144.78 138.43))
    (stroke (width 0) (type solid) (color 0 0 0 0))
    (uuid fe02054f-0fe9-44a7-a38a-7b41ef2b6622)
  )
  (wire (pts (xy 144.78 140.97) (xy 158.75 140.97))
    (stroke (width 0) (type solid) (color 0 0 0 0))
    (uuid d4fd2e4e-67b2-4b66-8bad-0b31b2b48fa0)
  )
  (wire (pts (xy 158.75 139.7) (xy 158.75 140.97))
    (stroke (width 0) (type solid) (color 0 0 0 0))
    (uuid 51e5d73c-3dc2-41f6-88a8-bbf41f74ed11)
  )
  (wire (pts (xy 161.29 49.53) (xy 170.18 49.53))
    (stroke (width 0) (type solid) (color 0 0 0 0))
    (uuid 2d08e216-d7f2-4419-af58-3b9622c27a66)
  )
  (wire (pts (xy 170.18 49.53) (xy 195.58 49.53))
    (stroke (width 0) (type solid) (color 0 0 0 0))
    (uuid e0b83b58-2538-49e2-bd83-b90c27a54dbc)
  )
  (wire (pts (xy 170.18 50.8) (xy 170.18 49.53))
    (stroke (width 0) (type solid) (color 0 0 0 0))
    (uuid 353e0c75-0abc-499b-a481-d54d68e88fe3)
  )
  (wire (pts (xy 172.72 119.38) (xy 160.02 119.38))
    (stroke (width 0) (type solid) (color 0 0 0 0))
    (uuid 83f6737b-1c49-43bd-af20-711d9260fb59)
  )
  (wire (pts (xy 172.72 119.38) (xy 172.72 137.16))
    (stroke (width 0) (type solid) (color 0 0 0 0))
    (uuid cd740637-61f4-4db1-849f-d138b5e3cedb)
  )
  (wire (pts (xy 177.8 62.23) (xy 195.58 62.23))
    (stroke (width 0) (type solid) (color 0 0 0 0))
    (uuid cd4e74a4-4922-4060-9dfb-ea4f117442a9)
  )
  (wire (pts (xy 177.8 134.62) (xy 177.8 147.32))
    (stroke (width 0) (type solid) (color 0 0 0 0))
    (uuid 1fab194b-6062-44f5-a683-26e38fa1c131)
  )
  (wire (pts (xy 179.07 134.62) (xy 177.8 134.62))
    (stroke (width 0) (type solid) (color 0 0 0 0))
    (uuid 77d6fa51-144c-49d8-b27b-1c0c6faee45d)
  )
  (wire (pts (xy 179.07 137.16) (xy 172.72 137.16))
    (stroke (width 0) (type solid) (color 0 0 0 0))
    (uuid aa5d4e82-ead1-42a2-8bfa-90bc210b3256)
  )
  (wire (pts (xy 179.07 139.7) (xy 158.75 139.7))
    (stroke (width 0) (type solid) (color 0 0 0 0))
    (uuid 0fe65d03-29dd-4422-9e26-868e9728937d)
  )
  (wire (pts (xy 179.07 143.51) (xy 179.07 142.24))
    (stroke (width 0) (type solid) (color 0 0 0 0))
    (uuid 7591d709-6378-4a36-8388-6c18a4717891)
  )
  (wire (pts (xy 195.58 49.53) (xy 195.58 50.8))
    (stroke (width 0) (type solid) (color 0 0 0 0))
    (uuid 317ef892-bdec-4528-bf4b-02d072295204)
  )
  (wire (pts (xy 195.58 49.53) (xy 213.36 49.53))
    (stroke (width 0) (type solid) (color 0 0 0 0))
    (uuid d84dd2d9-da67-4ac3-936d-eb93cf64bc1e)
  )
  (wire (pts (xy 195.58 62.23) (xy 195.58 58.42))
    (stroke (width 0) (type solid) (color 0 0 0 0))
    (uuid 5a380091-61d5-4180-bbec-22973535d49a)
  )
  (wire (pts (xy 195.58 62.23) (xy 200.66 62.23))
    (stroke (width 0) (type solid) (color 0 0 0 0))
    (uuid 74ed98a1-1960-4c4d-a6ad-525b27cf9f49)
  )
  (wire (pts (xy 208.28 62.23) (xy 213.36 62.23))
    (stroke (width 0) (type solid) (color 0 0 0 0))
    (uuid 4af28aa6-2f49-4b81-ae54-e4a514d22d61)
  )
  (wire (pts (xy 213.36 49.53) (xy 213.36 50.8))
    (stroke (width 0) (type solid) (color 0 0 0 0))
    (uuid 0d18e8d6-e81f-4030-b43f-5bfb941f971a)
  )
  (wire (pts (xy 213.36 49.53) (xy 227.33 49.53))
    (stroke (width 0) (type solid) (color 0 0 0 0))
    (uuid cdd1474d-c619-477a-a697-65e49e9cb32a)
  )
  (wire (pts (xy 213.36 62.23) (xy 213.36 58.42))
    (stroke (width 0) (type solid) (color 0 0 0 0))
    (uuid 2a1b8df3-27f3-496a-9e4a-f540702720c9)
  )
  (wire (pts (xy 213.36 62.23) (xy 219.71 62.23))
    (stroke (width 0) (type solid) (color 0 0 0 0))
    (uuid d6f4fc23-4d07-4e28-9026-60f8c2a53193)
  )
  (wire (pts (xy 227.33 49.53) (xy 227.33 59.69))
    (stroke (width 0) (type solid) (color 0 0 0 0))
    (uuid 71e77f82-f5e9-4b56-9f6c-990c2b800983)
  )
  (wire (pts (xy 227.33 64.77) (xy 227.33 71.12))
    (stroke (width 0) (type solid) (color 0 0 0 0))
    (uuid e592fe28-3dc3-4b25-9b57-9291f41f3fff)
  )
  (wire (pts (xy 233.68 62.23) (xy 252.73 62.23))
    (stroke (width 0) (type solid) (color 0 0 0 0))
    (uuid dc7c6eb4-ae32-44a0-8967-596644cfe8a6)
  )
  (polyline (pts (xy 29.21 39.37) (xy 29.21 92.71))
    (stroke (width 0) (type dash) (color 0 0 0 0))
    (uuid 0659072f-c698-43dc-8e26-a41f51d0d056)
  )
  (polyline (pts (xy 29.21 92.71) (xy 273.05 92.71))
    (stroke (width 0) (type dash) (color 0 0 0 0))
    (uuid 38102f10-d11e-4d4d-b12e-67c0162e3d04)
  )
  (polyline (pts (xy 91.44 107.95) (xy 200.66 107.95))
    (stroke (width 0) (type dash) (color 0 0 0 0))
    (uuid 47ce63e0-c382-4e78-b024-0bf4a4ea2db5)
  )
  (polyline (pts (xy 91.44 158.75) (xy 91.44 107.95))
    (stroke (width 0) (type dash) (color 0 0 0 0))
    (uuid 7272ea22-60c1-429e-a8ee-36779afede90)
  )
  (polyline (pts (xy 200.66 107.95) (xy 200.66 158.75))
    (stroke (width 0) (type dash) (color 0 0 0 0))
    (uuid 2bba36c8-fb3b-438a-87c1-798b10d8924e)
  )
  (polyline (pts (xy 200.66 158.75) (xy 91.44 158.75))
    (stroke (width 0) (type dash) (color 0 0 0 0))
    (uuid 12807cde-afc6-4aed-b8c1-df61e0388a5a)
  )
  (polyline (pts (xy 273.05 39.37) (xy 29.21 39.37))
    (stroke (width 0) (type dash) (color 0 0 0 0))
    (uuid 94727037-973c-48b2-bc95-53a3480865fe)
  )
  (polyline (pts (xy 273.05 92.71) (xy 273.05 39.37))
    (stroke (width 0) (type dash) (color 0 0 0 0))
    (uuid e05a4311-19c0-4895-82cf-80f84ced2857)
  )

  (text "RTC alarms can be used to wake up the Compute module\nNB an Alarm triggering while already awake will cause a reset \nThis can be used as a watchdog reset "
    (at 45.72 87.63 0)
    (effects (font (size 2.0066 2.0066)) (justify left bottom))
    (uuid 390bd13b-7a86-422b-9efa-a5b31368e8bb)
  )
  (text "IIC address : 1010_001x" (at 98.9838 71.0438 0)
    (effects (font (size 1.27 1.27)) (justify left bottom))
    (uuid 3896408f-f897-49f9-aaec-16b3118eb5a9)
  )
  (text "FAN controler" (at 102.87 113.03 0)
    (effects (font (size 2.0066 2.0066)) (justify left bottom))
    (uuid 89d4d824-1350-4d49-9540-aa99df9c83b5)
  )
  (text "IIC address : 0101_111x" (at 121.92 149.86 0)
    (effects (font (size 1.27 1.27)) (justify left bottom))
    (uuid c9914f4c-44ed-4c09-9ed0-c41fdfec8700)
  )
  (text "Also SMBUS alert IIC address : 0001_100x" (at 121.9454 153.9494 0)
    (effects (font (size 1.27 1.27)) (justify left bottom))
    (uuid cac6d1f2-e6ca-43a9-a4ae-29ecc95a1d3a)
  )
  (text "RTC and RTC wakeup" (at 127 44.45 0)
    (effects (font (size 2.0066 2.0066)) (justify left bottom))
    (uuid 129fbf64-2b60-4508-9c58-6bc78f004bdb)
  )
  (text "The above circuit generates a pulse for\nGLOBAL_EN when nRTC_INT goes low"
    (at 170.18 85.09 0)
    (effects (font (size 2.0066 2.0066)) (justify left bottom))
    (uuid c2ae45e6-b3dc-4c62-82a6-93758e0892e0)
  )
  (text "GLOBAL_EN needs to be pulse low for >1mS" (at 172.72 90.17 0)
    (effects (font (size 1.27 1.27)) (justify left bottom))
    (uuid a602c4a4-557f-4763-a60b-18daf3bdb3bf)
  )
  (text "FAN connector\n" (at 177.8 132.08 0)
    (effects (font (size 1.27 1.27)) (justify left bottom))
    (uuid 1b8354ca-acd0-4c1d-b7b9-f5cb46610113)
  )

  (label "+3.3v" (at 39.37 44.45 0)
    (effects (font (size 1.27 1.27)) (justify left bottom))
    (uuid b441712e-1b5d-4022-8ef3-34631b01f8aa)
  )
  (label "nRTC_INT" (at 104.14 60.96 0)
    (effects (font (size 1.27 1.27)) (justify left bottom))
    (uuid b0015140-e1ef-47cb-acab-7f2733e78581)
  )
  (label "+3.3v" (at 105.41 125.73 0)
    (effects (font (size 1.27 1.27)) (justify left bottom))
    (uuid 6debcec6-0550-48ea-b76b-0979bd1318dc)
  )
  (label "SCL" (at 106.68 50.8 180)
    (effects (font (size 1.27 1.27)) (justify right bottom))
    (uuid 401d30df-19c7-45bf-a750-920b1c56bb51)
  )
  (label "SDA" (at 106.68 53.34 180)
    (effects (font (size 1.27 1.27)) (justify right bottom))
    (uuid 1b8987c7-167f-4200-b5aa-eaa5d8aaf1c5)
  )
  (label "SDA" (at 106.68 135.89 0)
    (effects (font (size 1.27 1.27)) (justify left bottom))
    (uuid d43aac0d-491c-456f-b9df-2ff40c429fc8)
  )
  (label "SCL" (at 106.68 138.43 0)
    (effects (font (size 1.27 1.27)) (justify left bottom))
    (uuid 3da745f3-5696-4b63-bf53-09c7fe43dfe9)
  )
  (label "+3.3v" (at 106.68 140.97 0)
    (effects (font (size 1.27 1.27)) (justify left bottom))
    (uuid bf251bcb-7267-47d2-978b-ab6761fd3cb2)
  )
  (label "+5v" (at 162.56 49.53 0)
    (effects (font (size 2.0066 2.0066)) (justify left bottom))
    (uuid 68a7c1fd-4b91-438d-85de-a0e5f1650fe6)
  )
  (label "nRTC_INT" (at 180.34 62.23 0)
    (effects (font (size 2.0066 2.0066)) (justify left bottom))
    (uuid d2f94afe-d322-41b1-af8e-4e04975aed71)
  )
  (label "GLOBAL_EN" (at 234.95 62.23 0)
    (effects (font (size 2.0066 2.0066)) (justify left bottom))
    (uuid 142182cb-1c00-4b82-ab18-4b3c4bc3ff21)
  )

  (hierarchical_label "+3.3v" (shape input) (at 102.87 125.73 180)
    (effects (font (size 2.0066 2.0066)) (justify right))
    (uuid 76093716-b3a6-4fb1-94fa-b1a1f95bc93c)
  )
  (hierarchical_label "SCL" (shape input) (at 109.22 50.8 0)
    (effects (font (size 2.0066 2.0066)) (justify left))
    (uuid 1bb596d4-1180-46cd-8895-7fb9ff61ee8d)
  )
  (hierarchical_label "SDA" (shape input) (at 109.22 53.34 0)
    (effects (font (size 2.0066 2.0066)) (justify left))
    (uuid a1d4e62d-16fe-4200-abfc-d98ed608b560)
  )
  (hierarchical_label "+12v" (shape input) (at 160.02 119.38 180)
    (effects (font (size 2.0066 2.0066)) (justify right))
    (uuid 58e0f896-c2c2-4309-8e9f-d6e2cae7831b)
  )
  (hierarchical_label "+5v" (shape input) (at 161.29 49.53 180)
    (effects (font (size 2.0066 2.0066)) (justify right))
    (uuid 5b83b56a-053f-468a-9bf9-2ea84e3ea6c8)
  )
  (hierarchical_label "GLOBAL_EN" (shape output) (at 252.73 62.23 0)
    (effects (font (size 2.0066 2.0066)) (justify left))
    (uuid 45e4e658-27cf-4221-a892-813cd26ca79b)
  )

  (symbol (lib_id "power:GND") (at 46.228 67.31 0) (unit 1)
    (in_bom yes) (on_board yes)
    (uuid 00000000-0000-0000-0000-00005d313aa3)
    (property "Reference" "#PWR030" (id 0) (at 46.228 73.66 0)
      (effects (font (size 1.27 1.27)) hide)
    )
    (property "Value" "GND" (id 1) (at 46.355 71.7042 0))
    (property "Footprint" "" (id 2) (at 46.228 67.31 0)
      (effects (font (size 1.27 1.27)) hide)
    )
    (property "Datasheet" "" (id 3) (at 46.228 67.31 0)
      (effects (font (size 1.27 1.27)) hide)
    )
    (pin "1" (uuid 867583ba-a5d2-42d1-9637-611fc9b89a2c))
  )

  (symbol (lib_id "power:GND") (at 57.658 54.6354 0) (unit 1)
    (in_bom yes) (on_board yes)
    (uuid d246da2f-475c-405e-9593-d9ba8ff6c310)
    (property "Reference" "#PWR03" (id 0) (at 57.658 60.9854 0)
      (effects (font (size 1.27 1.27)) hide)
    )
    (property "Value" "GND" (id 1) (at 57.785 59.0296 0))
    (property "Footprint" "" (id 2) (at 57.658 54.6354 0)
      (effects (font (size 1.27 1.27)) hide)
    )
    (property "Datasheet" "" (id 3) (at 57.658 54.6354 0)
      (effects (font (size 1.27 1.27)) hide)
    )
    (pin "1" (uuid f891bf42-4b5f-4a7b-86f8-940a75649e2d))
  )

  (symbol (lib_id "power:GND") (at 91.44 73.66 0) (unit 1)
    (in_bom yes) (on_board yes)
    (uuid 00000000-0000-0000-0000-00005d30bf83)
    (property "Reference" "#PWR028" (id 0) (at 91.44 80.01 0)
      (effects (font (size 1.27 1.27)) hide)
    )
    (property "Value" "GND" (id 1) (at 91.567 78.0542 0))
    (property "Footprint" "" (id 2) (at 91.44 73.66 0)
      (effects (font (size 1.27 1.27)) hide)
    )
    (property "Datasheet" "" (id 3) (at 91.44 73.66 0)
      (effects (font (size 1.27 1.27)) hide)
    )
    (pin "1" (uuid 22540684-ebee-487f-b895-41c4eeb658df))
  )

  (symbol (lib_id "power:GND") (at 106.68 148.59 0) (unit 1)
    (in_bom yes) (on_board yes)
    (uuid 00000000-0000-0000-0000-00005d0dd5c0)
    (property "Reference" "#PWR032" (id 0) (at 106.68 154.94 0)
      (effects (font (size 1.27 1.27)) hide)
    )
    (property "Value" "GND" (id 1) (at 106.807 152.9842 0))
    (property "Footprint" "" (id 2) (at 106.68 148.59 0)
      (effects (font (size 1.27 1.27)) hide)
    )
    (property "Datasheet" "" (id 3) (at 106.68 148.59 0)
      (effects (font (size 1.27 1.27)) hide)
    )
    (pin "1" (uuid 04853201-e5a6-41bc-8ef7-9e6f11429642))
  )

  (symbol (lib_id "power:GND") (at 116.84 146.05 0) (unit 1)
    (in_bom yes) (on_board yes)
    (uuid 00000000-0000-0000-0000-00005e3727fe)
    (property "Reference" "#PWR033" (id 0) (at 116.84 152.4 0)
      (effects (font (size 1.27 1.27)) hide)
    )
    (property "Value" "GND" (id 1) (at 116.967 150.4442 0))
    (property "Footprint" "" (id 2) (at 116.84 146.05 0)
      (effects (font (size 1.27 1.27)) hide)
    )
    (property "Datasheet" "" (id 3) (at 116.84 146.05 0)
      (effects (font (size 1.27 1.27)) hide)
    )
    (pin "1" (uuid e811deb5-2a27-4967-bb8b-3b3ac2d68edb))
  )

  (symbol (lib_id "power:GND") (at 170.18 58.42 0) (unit 1)
    (in_bom yes) (on_board yes)
    (uuid 00000000-0000-0000-0000-00005e3893ce)
    (property "Reference" "#PWR031" (id 0) (at 170.18 64.77 0)
      (effects (font (size 1.27 1.27)) hide)
    )
    (property "Value" "GND" (id 1) (at 170.307 62.8142 0))
    (property "Footprint" "" (id 2) (at 170.18 58.42 0)
      (effects (font (size 1.27 1.27)) hide)
    )
    (property "Datasheet" "" (id 3) (at 170.18 58.42 0)
      (effects (font (size 1.27 1.27)) hide)
    )
    (pin "1" (uuid 34f6fda9-597f-47a9-9dea-027182f4cfa8))
  )

  (symbol (lib_id "power:GND") (at 177.8 147.32 0) (unit 1)
    (in_bom yes) (on_board yes)
    (uuid 00000000-0000-0000-0000-00005d0e8ad5)
    (property "Reference" "#PWR035" (id 0) (at 177.8 153.67 0)
      (effects (font (size 1.27 1.27)) hide)
    )
    (property "Value" "GND" (id 1) (at 177.927 151.7142 0))
    (property "Footprint" "" (id 2) (at 177.8 147.32 0)
      (effects (font (size 1.27 1.27)) hide)
    )
    (property "Datasheet" "" (id 3) (at 177.8 147.32 0)
      (effects (font (size 1.27 1.27)) hide)
    )
    (pin "1" (uuid 6c8135f2-91fd-4eb3-a705-0b57fa92e91b))
  )

  (symbol (lib_id "power:GND") (at 227.33 71.12 0) (unit 1)
    (in_bom yes) (on_board yes)
    (uuid 00000000-0000-0000-0000-00005e382746)
    (property "Reference" "#PWR034" (id 0) (at 227.33 77.47 0)
      (effects (font (size 1.27 1.27)) hide)
    )
    (property "Value" "GND" (id 1) (at 227.457 75.5142 0))
    (property "Footprint" "" (id 2) (at 227.33 71.12 0)
      (effects (font (size 1.27 1.27)) hide)
    )
    (property "Datasheet" "" (id 3) (at 227.33 71.12 0)
      (effects (font (size 1.27 1.27)) hide)
    )
    (pin "1" (uuid cdda1db5-e731-45c2-9566-5a2bbb1a6198))
  )

  (symbol (lib_id "Device:Crystal_Small") (at 67.818 55.372 90) (unit 1)
    (in_bom yes) (on_board yes)
    (uuid 00000000-0000-0000-0000-00005e8e1392)
    (property "Reference" "Y2" (id 0) (at 70.0532 54.229 90)
      (effects (font (size 1.27 1.27)) (justify right))
    )
    (property "Value" "X32K768S301" (id 1) (at 70.0532 56.515 90)
      (effects (font (size 1.27 1.27)) (justify right))
    )
    (property "Footprint" "Crystal:Crystal_SMD_3215-2Pin_3.2x1.5mm" (id 2) (at 67.818 55.372 0)
      (effects (font (size 1.27 1.27)) hide)
    )
    (property "Datasheet" "~" (id 3) (at 67.818 55.372 0)
      (effects (font (size 1.27 1.27)) hide)
    )
    (property "Field6" "X32K768S301" (id 4) (at 67.818 55.372 0)
      (effects (font (size 1.27 1.27)) hide)
    )
    (property "Field7" "AEL" (id 5) (at 67.818 55.372 0)
      (effects (font (size 1.27 1.27)) hide)
    )
    (property "Part Description" "Crystal 32.768KHz 7pF 20pmm" (id 6) (at 67.818 55.372 0)
      (effects (font (size 1.27 1.27)) hide)
    )
    (pin "1" (uuid 0667136f-c908-4977-8803-6a9b4f840aaa))
    (pin "2" (uuid b42b2032-b391-4424-91c3-1f7c2e6a3fc5))
  )

  (symbol (lib_id "Device:R") (at 144.78 134.62 180) (unit 1)
    (in_bom yes) (on_board yes)
    (uuid 00000000-0000-0000-0000-00005d0e61c8)
    (property "Reference" "R21" (id 0) (at 148.59 135.89 0))
    (property "Value" "36K 1%" (id 1) (at 150.495 133.35 0))
    (property "Footprint" "Resistor_SMD:R_0402_1005Metric" (id 2) (at 146.558 134.62 90)
      (effects (font (size 1.27 1.27)) hide)
    )
    (property "Datasheet" "https://fscdn.rohm.com/en/products/databook/datasheet/passive/resistor/chip_resistor/mcr-e.pdf" (id 3) (at 144.78 134.62 0)
      (effects (font (size 1.27 1.27)) hide)
    )
    (property "Field4" "Farnell" (id 4) (at 144.78 134.62 0)
      (effects (font (size 1.27 1.27)) hide)
    )
    (property "Field5" "1458788" (id 5) (at 144.78 134.62 0)
      (effects (font (size 1.27 1.27)) hide)
    )
    (property "Field7" "Rohm" (id 6) (at 144.78 134.62 0)
      (effects (font (size 1.27 1.27)) hide)
    )
    (property "Field6" "MCR01MZPF3602" (id 7) (at 144.78 134.62 0)
      (effects (font (size 1.27 1.27)) hide)
    )
    (property "Part Description" "Resistor 36K M1005 1% 63mW" (id 8) (at 144.78 134.62 0)
      (effects (font (size 1.27 1.27)) hide)
    )
    (pin "1" (uuid 44496b86-f25b-4e0a-abe3-eab9036cecfd))
    (pin "2" (uuid 2e856628-8130-4fbd-b422-8cf9fff96e51))
  )

  (symbol (lib_id "Device:R") (at 195.58 54.61 180) (unit 1)
    (in_bom yes) (on_board yes)
    (uuid 00000000-0000-0000-0000-00005e37126a)
    (property "Reference" "R19" (id 0) (at 198.755 55.88 0))
    (property "Value" "510K 1%" (id 1) (at 201.295 53.34 0))
    (property "Footprint" "Resistor_SMD:R_0402_1005Metric" (id 2) (at 197.358 54.61 90)
      (effects (font (size 1.27 1.27)) hide)
    )
    (property "Datasheet" "https://fscdn.rohm.com/en/products/databook/datasheet/passive/resistor/chip_resistor/mcr-e.pdf" (id 3) (at 195.58 54.61 0)
      (effects (font (size 1.27 1.27)) hide)
    )
    (property "Field4" "Farnell" (id 4) (at 195.58 54.61 0)
      (effects (font (size 1.27 1.27)) hide)
    )
    (property "Field5" "1458807" (id 5) (at 195.58 54.61 0)
      (effects (font (size 1.27 1.27)) hide)
    )
    (property "Field7" "Rohm" (id 6) (at 195.58 54.61 0)
      (effects (font (size 1.27 1.27)) hide)
    )
    (property "Field6" "MCR01MZPF5103" (id 7) (at 195.58 54.61 0)
      (effects (font (size 1.27 1.27)) hide)
    )
    (property "Part Description" "Resistor 510K M1005 1% 63mW" (id 8) (at 195.58 54.61 0)
      (effects (font (size 1.27 1.27)) hide)
    )
    (pin "1" (uuid 8259d3af-1cd9-46cb-ba4b-e761c6ff0ddd))
    (pin "2" (uuid ecac92a4-041d-4b1f-992c-d76954de14fa))
  )

  (symbol (lib_id "Device:R") (at 213.36 54.61 180) (unit 1)
    (in_bom yes) (on_board yes)
    (uuid 00000000-0000-0000-0000-00005e37178d)
    (property "Reference" "R20" (id 0) (at 216.535 55.88 0))
    (property "Value" "510K 1%" (id 1) (at 219.075 53.34 0))
    (property "Footprint" "Resistor_SMD:R_0402_1005Metric" (id 2) (at 215.138 54.61 90)
      (effects (font (size 1.27 1.27)) hide)
    )
    (property "Datasheet" "https://fscdn.rohm.com/en/products/databook/datasheet/passive/resistor/chip_resistor/mcr-e.pdf" (id 3) (at 213.36 54.61 0)
      (effects (font (size 1.27 1.27)) hide)
    )
    (property "Field4" "Farnell" (id 4) (at 213.36 54.61 0)
      (effects (font (size 1.27 1.27)) hide)
    )
    (property "Field5" "1458807" (id 5) (at 213.36 54.61 0)
      (effects (font (size 1.27 1.27)) hide)
    )
    (property "Field7" "Rohm" (id 6) (at 213.36 54.61 0)
      (effects (font (size 1.27 1.27)) hide)
    )
    (property "Field6" "MCR01MZPF5103" (id 7) (at 213.36 54.61 0)
      (effects (font (size 1.27 1.27)) hide)
    )
    (property "Part Description" "Resistor 510K M1005 1% 63mW" (id 8) (at 213.36 54.61 0)
      (effects (font (size 1.27 1.27)) hide)
    )
    (pin "1" (uuid d63be791-cfae-423c-8a3a-a26d40f382ff))
    (pin "2" (uuid 675c5613-1be5-4748-a69f-d2d50defe4b6))
  )

  (symbol (lib_id "Device:Battery_Cell") (at 46.228 64.77 0) (unit 1)
    (in_bom yes) (on_board yes)
    (uuid 00000000-0000-0000-0000-00005d313a99)
    (property "Reference" "BT1" (id 0) (at 49.2252 62.3316 0)
      (effects (font (size 1.27 1.27)) (justify left))
    )
    (property "Value" "Battery_Cell" (id 1) (at 49.2252 64.643 0)
      (effects (font (size 1.27 1.27)) (justify left))
    )
    (property "Footprint" "Battery:BatteryHolder_Keystone_3034_1x20mm" (id 2) (at 46.228 63.246 90)
      (effects (font (size 1.27 1.27)) hide)
    )
    (property "Datasheet" "https://www.keyelco.com/userAssets/file/M65p9.pdf" (id 3) (at 46.228 63.246 90)
      (effects (font (size 1.27 1.27)) hide)
    )
    (property "Field4" "Digikey" (id 4) (at 46.228 64.77 0)
      (effects (font (size 1.27 1.27)) hide)
    )
    (property "Field5" "36-3034-ND" (id 5) (at 46.228 64.77 0)
      (effects (font (size 1.27 1.27)) hide)
    )
    (property "Field6" "3034" (id 6) (at 46.228 64.77 0)
      (effects (font (size 1.27 1.27)) hide)
    )
    (property "Field7" "Keystone" (id 7) (at 46.228 64.77 0)
      (effects (font (size 1.27 1.27)) hide)
    )
    (property "Part Description" "	Battery Retainer Coin, 20.0mm 1 Cell SMD (SMT) Tab" (id 8) (at 46.228 64.77 0)
      (effects (font (size 1.27 1.27)) hide)
    )
    (pin "1" (uuid 73cb0054-ed23-491f-8fdd-4efa1e8e5334))
    (pin "2" (uuid 1db45d44-28c5-4715-832a-33655fcf7a78))
  )

  (symbol (lib_id "Device:C") (at 57.658 50.8254 0) (unit 1)
    (in_bom yes) (on_board yes)
    (uuid e75e5065-35a0-4517-8a34-de205d6745b5)
    (property "Reference" "C46" (id 0) (at 60.579 49.657 0)
      (effects (font (size 1.27 1.27)) (justify left))
    )
    (property "Value" "100n" (id 1) (at 60.579 51.9684 0)
      (effects (font (size 1.27 1.27)) (justify left))
    )
    (property "Footprint" "Capacitor_SMD:C_0402_1005Metric" (id 2) (at 58.6232 54.6354 0)
      (effects (font (size 1.27 1.27)) hide)
    )
    (property "Datasheet" "https://search.murata.co.jp/Ceramy/image/img/A01X/G101/ENG/GRM155R71C104KA88-01.pdf" (id 3) (at 57.658 50.8254 0)
      (effects (font (size 1.27 1.27)) hide)
    )
    (property "Field4" "Farnell" (id 4) (at 57.658 50.8254 0)
      (effects (font (size 1.27 1.27)) hide)
    )
    (property "Field5" "2611911" (id 5) (at 57.658 50.8254 0)
      (effects (font (size 1.27 1.27)) hide)
    )
    (property "Field6" "RM EMK105 B7104KV-F" (id 6) (at 57.658 50.8254 0)
      (effects (font (size 1.27 1.27)) hide)
    )
    (property "Field7" "TAIYO YUDEN EUROPE GMBH" (id 7) (at 57.658 50.8254 0)
      (effects (font (size 1.27 1.27)) hide)
    )
    (property "Part Description" "	0.1uF 10% 16V Ceramic Capacitor X7R 0402 (1005 Metric)" (id 8) (at 57.658 50.8254 0)
      (effects (font (size 1.27 1.27)) hide)
    )
    (property "Field8" "110091611" (id 9) (at 57.658 50.8254 0)
      (effects (font (size 1.27 1.27)) hide)
    )
    (pin "1" (uuid 21934519-8ccb-4221-a1ed-5ddf803820dd))
    (pin "2" (uuid c21b4a6a-1bb4-463e-ad23-b45bad4bf9b1))
  )

  (symbol (lib_id "Device:C") (at 106.68 144.78 0) (unit 1)
    (in_bom yes) (on_board yes)
    (uuid 00000000-0000-0000-0000-00005d0dcf99)
    (property "Reference" "C23" (id 0) (at 109.601 143.6116 0)
      (effects (font (size 1.27 1.27)) (justify left))
    )
    (property "Value" "100n" (id 1) (at 109.601 145.923 0)
      (effects (font (size 1.27 1.27)) (justify left))
    )
    (property "Footprint" "Capacitor_SMD:C_0402_1005Metric" (id 2) (at 107.6452 148.59 0)
      (effects (font (size 1.27 1.27)) hide)
    )
    (property "Datasheet" "https://search.murata.co.jp/Ceramy/image/img/A01X/G101/ENG/GRM155R71C104KA88-01.pdf" (id 3) (at 106.68 144.78 0)
      (effects (font (size 1.27 1.27)) hide)
    )
    (property "Field4" "Farnell" (id 4) (at 106.68 144.78 0)
      (effects (font (size 1.27 1.27)) hide)
    )
    (property "Field5" "2611911" (id 5) (at 106.68 144.78 0)
      (effects (font (size 1.27 1.27)) hide)
    )
    (property "Field6" "RM EMK105 B7104KV-F" (id 6) (at 106.68 144.78 0)
      (effects (font (size 1.27 1.27)) hide)
    )
    (property "Field7" "TAIYO YUDEN EUROPE GMBH" (id 7) (at 106.68 144.78 0)
      (effects (font (size 1.27 1.27)) hide)
    )
    (property "Part Description" "	0.1uF 10% 16V Ceramic Capacitor X7R 0402 (1005 Metric)" (id 8) (at 106.68 144.78 0)
      (effects (font (size 1.27 1.27)) hide)
    )
    (property "Field8" "110091611" (id 9) (at 106.68 144.78 0)
      (effects (font (size 1.27 1.27)) hide)
    )
    (pin "1" (uuid fc6b0332-c232-4694-8bad-c84184d6be5e))
    (pin "2" (uuid c3353cca-d69d-4d91-8e5f-0f4c625ee49a))
  )

  (symbol (lib_id "Device:C") (at 170.18 54.61 0) (unit 1)
    (in_bom yes) (on_board yes)
    (uuid 00000000-0000-0000-0000-00005e37f6d4)
    (property "Reference" "C22" (id 0) (at 173.101 53.4416 0)
      (effects (font (size 1.27 1.27)) (justify left))
    )
    (property "Value" "100n" (id 1) (at 173.101 55.753 0)
      (effects (font (size 1.27 1.27)) (justify left))
    )
    (property "Footprint" "Capacitor_SMD:C_0402_1005Metric" (id 2) (at 171.1452 58.42 0)
      (effects (font (size 1.27 1.27)) hide)
    )
    (property "Datasheet" "https://search.murata.co.jp/Ceramy/image/img/A01X/G101/ENG/GRM155R71C104KA88-01.pdf" (id 3) (at 170.18 54.61 0)
      (effects (font (size 1.27 1.27)) hide)
    )
    (property "Field4" "Farnell" (id 4) (at 170.18 54.61 0)
      (effects (font (size 1.27 1.27)) hide)
    )
    (property "Field5" "2611911" (id 5) (at 170.18 54.61 0)
      (effects (font (size 1.27 1.27)) hide)
    )
    (property "Field6" "RM EMK105 B7104KV-F" (id 6) (at 170.18 54.61 0)
      (effects (font (size 1.27 1.27)) hide)
    )
    (property "Field7" "TAIYO YUDEN EUROPE GMBH" (id 7) (at 170.18 54.61 0)
      (effects (font (size 1.27 1.27)) hide)
    )
    (property "Part Description" "	0.1uF 10% 16V Ceramic Capacitor X7R 0402 (1005 Metric)" (id 8) (at 170.18 54.61 0)
      (effects (font (size 1.27 1.27)) hide)
    )
    (property "Field8" "110091611" (id 9) (at 170.18 54.61 0)
      (effects (font (size 1.27 1.27)) hide)
    )
    (pin "1" (uuid 8dedb20c-0b24-4434-9d92-c53325cfee79))
    (pin "2" (uuid f90cd156-6565-44ae-87c8-28a0b6371d57))
  )

  (symbol (lib_id "Device:C") (at 204.47 62.23 270) (unit 1)
    (in_bom yes) (on_board yes)
    (uuid 00000000-0000-0000-0000-00005e37f943)
    (property "Reference" "C24" (id 0) (at 205.74 66.04 90)
      (effects (font (size 1.27 1.27)) (justify left))
    )
    (property "Value" "100n" (id 1) (at 198.12 66.04 90)
      (effects (font (size 1.27 1.27)) (justify left))
    )
    (property "Footprint" "Capacitor_SMD:C_0402_1005Metric" (id 2) (at 200.66 63.1952 0)
      (effects (font (size 1.27 1.27)) hide)
    )
    (property "Datasheet" "https://search.murata.co.jp/Ceramy/image/img/A01X/G101/ENG/GRM155R71C104KA88-01.pdf" (id 3) (at 204.47 62.23 0)
      (effects (font (size 1.27 1.27)) hide)
    )
    (property "Field4" "Farnell" (id 4) (at 204.47 62.23 0)
      (effects (font (size 1.27 1.27)) hide)
    )
    (property "Field5" "2611911" (id 5) (at 204.47 62.23 0)
      (effects (font (size 1.27 1.27)) hide)
    )
    (property "Field6" "RM EMK105 B7104KV-F" (id 6) (at 204.47 62.23 0)
      (effects (font (size 1.27 1.27)) hide)
    )
    (property "Field7" "TAIYO YUDEN EUROPE GMBH" (id 7) (at 204.47 62.23 0)
      (effects (font (size 1.27 1.27)) hide)
    )
    (property "Part Description" "	0.1uF 10% 16V Ceramic Capacitor X7R 0402 (1005 Metric)" (id 8) (at 204.47 62.23 0)
      (effects (font (size 1.27 1.27)) hide)
    )
    (property "Field8" "110091611" (id 9) (at 204.47 62.23 0)
      (effects (font (size 1.27 1.27)) hide)
    )
    (pin "1" (uuid 1b97742d-2853-4e48-8cf2-e71a05420b32))
    (pin "2" (uuid 5daf3905-bcbc-4efb-89ef-b84483704ca5))
  )

  (symbol (lib_id "Connector_Generic:Conn_01x04") (at 184.15 137.16 0) (unit 1)
    (in_bom yes) (on_board yes)
    (uuid 00000000-0000-0000-0000-00005d0e2a28)
    (property "Reference" "J17" (id 0) (at 182.245 145.415 0)
      (effects (font (size 1.27 1.27)) (justify left))
    )
    (property "Value" "Molex 470531000" (id 1) (at 181.61 147.955 0)
      (effects (font (size 1.27 1.27)) (justify left))
    )
    (property "Footprint" "Connector:FanPinHeader_1x04_P2.54mm_Vertical" (id 2) (at 184.15 137.16 0)
      (effects (font (size 1.27 1.27)) hide)
    )
    (property "Datasheet" "https://www.molex.com/pdm_docs/sd/470531000_sd.pdf" (id 3) (at 184.15 137.16 0)
      (effects (font (size 1.27 1.27)) hide)
    )
    (property "Field4" "Farnell" (id 4) (at 184.15 137.16 0)
      (effects (font (size 1.27 1.27)) hide)
    )
    (property "Field5" "	2313705" (id 5) (at 184.15 137.16 0)
      (effects (font (size 1.27 1.27)) hide)
    )
    (property "Field6" "470531000" (id 6) (at 184.15 137.16 0)
      (effects (font (size 1.27 1.27)) hide)
    )
    (property "Field7" "Molex" (id 7) (at 184.15 137.16 0)
      (effects (font (size 1.27 1.27)) hide)
    )
    (property "Part Description" "	Connector Header Through Hole 4 position 0.100\" (2.54mm)" (id 8) (at 184.15 137.16 0)
      (effects (font (size 1.27 1.27)) hide)
    )
    (pin "1" (uuid f77f8508-de07-4607-8700-bf5224b88802))
    (pin "2" (uuid 1b21deb6-73cb-442a-adfc-cbe1a6d2b0ef))
    (pin "3" (uuid 45d8f65d-a56f-4f3a-8c65-a60e2dce7a7d))
    (pin "4" (uuid d433c086-1366-4c7f-b49a-25eafae4413b))
  )

  (symbol (lib_id "CM4IO:74LVC1G07_copy") (at 227.33 62.23 0) (unit 1)
    (in_bom yes) (on_board yes)
    (uuid 00000000-0000-0000-0000-00005e366722)
    (property "Reference" "U14" (id 0) (at 230.505 55.88 0))
    (property "Value" "74LVC1G07SE-7" (id 1) (at 236.855 57.785 0))
    (property "Footprint" "Package_TO_SOT_SMD:SOT-353_SC-70-5" (id 2) (at 227.33 62.23 0)
      (effects (font (size 1.27 1.27)) hide)
    )
    (property "Datasheet" "https://www.diodes.com/assets/Datasheets/74LVC1G07.pdf" (id 3) (at 227.33 62.23 0)
      (effects (font (size 1.27 1.27)) hide)
    )
    (property "Field4" "Farnell" (id 4) (at 227.33 62.23 0)
      (effects (font (size 1.27 1.27)) hide)
    )
    (property "Field5" "2425492" (id 5) (at 227.33 62.23 0)
      (effects (font (size 1.27 1.27)) hide)
    )
    (property "Field6" "74LVC1G07SE-7" (id 6) (at 227.33 62.23 0)
      (effects (font (size 1.27 1.27)) hide)
    )
    (property "Field7" "Diodes" (id 7) (at 227.33 62.23 0)
      (effects (font (size 1.27 1.27)) hide)
    )
    (property "Part Description" "Buffer, Non-Inverting 1 Element 1 Bit per Element Open Drain Output SOT-353" (id 8) (at 227.33 62.23 0)
      (effects (font (size 1.27 1.27)) hide)
    )
    (pin "2" (uuid b7387fbf-8e25-4136-a346-3120552325bf))
    (pin "3" (uuid 5e153d78-ba44-4489-8b89-cb72b15c4358))
    (pin "4" (uuid 91b467da-f511-4c6d-ac9f-6fecb1ed583b))
    (pin "5" (uuid cd433ab8-15b0-4553-b043-f65aaffd81e5))
  )

  (symbol (lib_id "Diode:BAT54C") (at 46.228 52.07 90) (unit 1)
    (in_bom yes) (on_board yes)
    (uuid 00000000-0000-0000-0000-00005e8f3ded)
    (property "Reference" "D3" (id 0) (at 44.0182 50.927 90)
      (effects (font (size 1.27 1.27)) (justify left))
    )
    (property "Value" "BAT54C-7-F" (id 1) (at 44.0182 53.213 90)
      (effects (font (size 1.27 1.27)) (justify left))
    )
    (property "Footprint" "Package_TO_SOT_SMD:SOT-23" (id 2) (at 43.053 50.165 0)
      (effects (font (size 1.27 1.27)) (justify left) hide)
    )
    (property "Datasheet" "http://www.farnell.com/datasheets/2861240.pdf?_ga=2.129831176.54358802.1587372871-1787849031.1568210898&_gac=1.175311126.1587399424.EAIaIQobChMInOvF07P36AIVw7HtCh0NWwCeEAAYAyAAEgI0YfD_BwE" (id 3) (at 46.228 54.102 0)
      (effects (font (size 1.27 1.27)) hide)
    )
    (property "Field4" "Farnell" (id 4) (at 46.228 52.07 0)
      (effects (font (size 1.27 1.27)) hide)
    )
    (property "Field5" "2306010" (id 5) (at 46.228 52.07 0)
      (effects (font (size 1.27 1.27)) hide)
    )
    (property "Field6" "BAT54C-7-F" (id 6) (at 46.228 52.07 0)
      (effects (font (size 1.27 1.27)) hide)
    )
    (property "Field7" "Rohm" (id 7) (at 46.228 52.07 0)
      (effects (font (size 1.27 1.27)) hide)
    )
    (property "Part Description" "Diode Array 1 Pair Common Cathode Schottky 30V 200mA (DC) Surface Mount TO-236-3, SC-59, SOT-23-3" (id 8) (at 46.228 52.07 0)
      (effects (font (size 1.27 1.27)) hide)
    )
    (pin "1" (uuid 338154e9-3f50-4066-9300-db3c374456db))
    (pin "2" (uuid fefe3280-49b2-49df-9d4c-05a2235dc8a5))
    (pin "3" (uuid 85734825-7c02-4951-825a-f9139b466e5e))
  )

  (symbol (lib_id "CM4IO:EMC2301") (at 130.81 146.05 0) (unit 1)
    (in_bom yes) (on_board yes)
    (uuid 00000000-0000-0000-0000-00005d0d0094)
    (property "Reference" "U11" (id 0) (at 128.905 129.159 0))
    (property "Value" "EMC2301-1-ACZL-TR" (id 1) (at 128.905 131.4704 0))
    (property "Footprint" "Package_SO:SOIC-8_5.23x5.23mm_P1.27mm" (id 2) (at 130.81 146.05 0)
      (effects (font (size 1.27 1.27)) hide)
    )
    (property "Datasheet" "https://ww1.microchip.com/downloads/en/DeviceDoc/2301.pdf" (id 3) (at 130.81 146.05 0)
      (effects (font (size 1.27 1.27)) hide)
    )
    (property "Field4" "Digikey" (id 4) (at 130.81 146.05 0)
      (effects (font (size 1.27 1.27)) hide)
    )
    (property "Field5" "EMC2301-1-ACZL-CT-ND" (id 5) (at 130.81 146.05 0)
      (effects (font (size 1.27 1.27)) hide)
    )
    (property "Field6" "EMC2301-1-ACZL-TR" (id 6) (at 130.81 146.05 0)
      (effects (font (size 1.27 1.27)) hide)
    )
    (property "Field7" "Microchip" (id 7) (at 130.81 146.05 0)
      (effects (font (size 1.27 1.27)) hide)
    )
    (property "Part Description" "Motor Driver PWM 8-MSOP" (id 8) (at 130.81 146.05 0)
      (effects (font (size 1.27 1.27)) hide)
    )
    (pin "1" (uuid 4889136e-cb14-458a-a3d5-8692189f8170))
    (pin "2" (uuid 1e7e6b68-5557-4783-bc2e-14f1663de633))
    (pin "3" (uuid e82a9ae4-4e40-42f3-9c6d-d4f69f550725))
    (pin "4" (uuid 1a912db6-8411-4941-9e8a-e56a4458c6aa))
    (pin "5" (uuid 655c79a5-7b47-4675-9112-ff2a5d2165d9))
    (pin "6" (uuid f5f24147-ecdf-4125-9a00-9753449318ab))
    (pin "7" (uuid 496c8e17-9596-41e4-a0cc-2f7682586b47))
    (pin "8" (uuid 95174e4f-cf40-47c5-a943-3e078a491682))
  )

  (symbol (lib_id "Timer_RTC:PCF8563T") (at 91.44 55.88 0) (unit 1)
    (in_bom yes) (on_board yes)
    (uuid 00000000-0000-0000-0000-00005e8dc781)
    (property "Reference" "U8" (id 0) (at 91.44 41.1734 0))
    (property "Value" "PCF85063AT/AAZ" (id 1) (at 91.44 43.4848 0))
    (property "Footprint" "Package_SO:SOIC-8_3.9x4.9mm_P1.27mm" (id 2) (at 91.44 55.88 0)
      (effects (font (size 1.27 1.27)) hide)
    )
    (property "Datasheet" "https://www.nxp.com/docs/en/data-sheet/PCF85063A.pdf" (id 3) (at 91.44 55.88 0)
      (effects (font (size 1.27 1.27)) hide)
    )
    (property "Field4" "Farnell" (id 4) (at 91.44 55.88 0)
      (effects (font (size 1.27 1.27)) hide)
    )
    (property "Field5" "2890042" (id 5) (at 91.44 55.88 0)
      (effects (font (size 1.27 1.27)) hide)
    )
    (property "Field7" "NXP" (id 6) (at 91.44 55.88 0)
      (effects (font (size 1.27 1.27)) hide)
    )
    (property "Field6" "PCF85063AT/AAZ" (id 7) (at 91.44 55.88 0)
      (effects (font (size 1.27 1.27)) hide)
    )
    (property "Part Description" "Real Time Clock (RTC) IC Clock/Calendar I²C, 2-Wire Serial 8-SOIC (0.154\", 3.90mm Width)" (id 8) (at 91.44 55.88 0)
      (effects (font (size 1.27 1.27)) hide)
    )
    (pin "1" (uuid 2b8fed75-8845-4377-83e0-3a61ccea1bfe))
    (pin "2" (uuid f3f336fa-b8b2-45df-b61f-f301582c660e))
    (pin "3" (uuid 5b1fcd11-4b65-4ae0-accc-109252e4e15e))
    (pin "4" (uuid 298b985b-3908-490d-93dc-d872b574e597))
    (pin "5" (uuid 2cc55696-82a3-4cd4-8ff0-ab6a18b146a4))
    (pin "6" (uuid c589b039-b251-48db-9870-5423776244e2))
    (pin "7" (uuid 4d1bb4f8-a243-4ff5-84bc-7fec0f2bd6b7))
    (pin "8" (uuid 6d426c47-6142-45ef-a558-9611bd5a41d0))
  )
)
